[
	{
		"name": "Fernando",
		"surname": "Martín Flores",
		"description": "Instructor de la clase de programación",
		"sex": "hombre",
		"email": "fernando@develper.com",
		"telephone": "444995554",
		"company": "Softwate Inc."
	},
	{
		"name": "marina en minuscula",
		"surname": "Yllana Fernández",
		"description": "Compañera de trabajo",
		"sex": "mujer",
		"email": "marinai@develper.com",
		"telephone": "343435554",
		"company": "Python company fake Inc."
	},
	{
		"name": "Manuel",
		"surname": "Gimeno Ruiz",
		"description": "Compañero de departamento",
		"sex": "hombre",
		"email": "manu@delaver.com",
		"telephone": "4466795554",
		"company": "Delaver desarrollos a medida SA"
	}

]